Final Project
…
Explanation

There are substantially more patients with no brain tumor as opposed to having a brain tumor. There are ~200 patients with brain tumors as opposed to ~1450 with no brain tumor.

Question 3

Are there a lot of patient images with a mean above 10? Does a higher mean most likely result in a high entropy? Lastly, can you base whether a patient has a brain tumor or not going off of mean and entropy results?

brain_tumors %>% #using the data set
  filter(Mean>=10) -> top_mean #only want mean values > 10

top_mean %>% #using new data set
count(Mean) #count all mean > 10

## # A tibble: 149 x 2
##     Mean     n
##  * <dbl> <int>
##  1  10.0     1
##  2  10.0     1
##  3  10.1     1
##  4  10.1     1
##  5  10.3     1
##  6  10.3     1
##  7  10.3     1
##  8  10.5     1
##  9  10.5     1
## 10  10.8     1
## #  with 139 more rows
…
Explanation

No, there are not a lot of images with a mean higher than 10. This was interesting to me in that almost the same number of patients had a brain tumor present.

A high mean value (> 10) shows to also have a high entropy value. When the mean decreases (still above 10), the entropy also decreases. A target value of 1 (brain tumor present) seems to be more present than 0 (no brain tumor present). It can not be ruled out whether a higher mean or entropy value suggests a brain tumor is present.

Question 4

Skewness and Kurtosis values in MRI scans can be useful in differentiating between benign and malignant tumors. What is the relationship between the Skewness and Kurtosis values in this data set? 

brain_tumorsna <- brain_tumors %>% drop_na() 
#need to drop n/a's otherwise graph isn't pretty 
brain_tumorsna

## # A tibble: 1,275 x 19
##    Image   Mean Variance `Standard Devia Entropy Skewness Kurtosis Contrast
##    <chr>  <dbl>    <dbl>            <dbl>   <dbl>    <dbl>    <dbl>    <dbl>
##  1 Imag 23.4     2539.             50.4    0.651     1.98     5.42    181. 
##  2 Imag  4.40     835.             28.9    0.954     6.50    43.3      76.7
##  3 Imag  3.24     642.             25.3    0.966     7.77    61.8      81.8
##  4 Imag  8.51    1126.             33.6    0.869     3.76    15.1     362. 
##  5 Imag 21.0     2235.             47.3    0.685     1.94     4.72    312. 
##  6 Imag 11.4      999.             31.6    0.761     2.53     7.39    304. 
##  7 Imag  0.405     68.4             8.27   0.995    20.4    417.       17.8
##  8 Imag  5.96     937.             30.6    0.927     5.02    26.2      57.2
##  9 Imag  6.18     895.             29.9    0.917     4.71    23.2      73.7
## 10 Imag  0.261     52.3             7.23   0.997    27.7    769.       18.0
## #  with 1,265 more rows, and 11 more variables: Energy <dbl>, ASM <dbl>,
## #   Homogeneity <dbl>, Dissimilarity <dbl>, Correlation <dbl>,
## #   Coarseness <dbl>, PSNR <dbl>, SSIM <dbl>, MSE <dbl>, DC <dbl>, Target <dbl>
…
